[gd_scene load_steps=4 format=2]

[ext_resource path="res://entities/map_entity/map_entity.tscn" type="PackedScene" id=1]
[ext_resource path="res://addons/kenney_tinydungeon/Tiles/tile_0121.png" type="Texture" id=2]
[ext_resource path="res://entities/enemy/enemy.gd" type="Script" id=3]

[node name="Enemy" instance=ExtResource( 1 )]
script = ExtResource( 3 )
starting_life = 50

[node name="Sprite" parent="." index="0"]
texture = ExtResource( 2 )
