[gd_scene load_steps=5 format=2]

[ext_resource path="res://entities/map_entity/map_entity.tscn" type="PackedScene" id=1]
[ext_resource path="res://addons/kenney_tinydungeon/Tiles/tile_0112.png" type="Texture" id=3]
[ext_resource path="res://addons/kenney_tinydungeon/Tiles/tile_0060.png" type="Texture" id=4]
[ext_resource path="res://entities/player/player.gd" type="Script" id=5]

[node name="Player" instance=ExtResource( 1 )]
script = ExtResource( 5 )
attack_damage = 5

[node name="Sprite" parent="." index="0"]
texture = ExtResource( 3 )

[node name="Camera2D" type="Camera2D" parent="." index="1"]
current = true
zoom = Vector2( 0.25, 0.25 )

[node name="Aim" type="Sprite" parent="." index="2"]
z_index = 1
texture = ExtResource( 4 )
